// Jest Snapshot v1, https://goo.gl/fbAQLP

exports[`<AppointmentFormContainer /> should work 1`] = `ShallowWrapper {}`;

exports[`<Calendar /> should work 1`] = `ShallowWrapper {}`;

exports[`AppointmentFormContainer should render correctly 1`] = `ShallowWrapper {}`;

exports[`Calendar should render correctly 1`] = `ShallowWrapper {}`;
